<?xml version="1.0" encoding="utf-8"?>
<!-- Generator: Adobe Illustrator 16.0.3, SVG Export Plug-In . SVG Version: 6.00 Build 0)  -->
<!DOCTYPE svg PUBLIC "-//W3C//DTD SVG 1.1//EN" "http://www.w3.org/Graphics/SVG/1.1/DTD/svg11.dtd">
<svg version="1.1" id="Layer_1" xmlns="http://www.w3.org/2000/svg" xmlns:xlink="http://www.w3.org/1999/xlink" x="0px" y="0px"
	 width="93.97px" height="155.91px" viewBox="0 0 93.97 155.91" enable-background="new 0 0 93.97 155.91" xml:space="preserve">
<g id="Right">
	<path id="Fill.-2" fill="#8ECA21" d="M76.013,4.945l8.818,8.818L20.643,77.955l64.189,64.191l-8.818,8.818L3,77.955L76.013,4.945z"
		/>
	<path id="Stroke.-3" fill="none" stroke="#6C8D2F" stroke-width="2" d="M76.013,4.945l8.818,8.818L20.643,77.955l64.189,64.191
		l-8.818,8.818L3,77.955L76.013,4.945z"/>
</g>
</svg>
